{
    "name": "SimpleModule",
    "alias": "simplemodule",
    "description": "",
    "keywords": [],
    "priority": 0,
    "providers": [
        "Modules\\SimpleModule\\Providers\\SimpleModuleServiceProvider"
    ],
    "aliases": {},
    "files": [],
    "requires": []
}
